1B44F95497D2176D56EFE4E98166FDB3.cache.js
user.agent ie10

67195D71C37D77DC035E769204B85537.cache.js
user.agent gecko1_8

7F26AC280E1706E5CCA97DECBDE13F72.cache.js
user.agent ie8

A6A13B406C4A81968B1FC6C49C6EA2C1.cache.js
user.agent safari

E4F5DD4A25B1F2DD7AC5D29AA18F7C59.cache.js
user.agent ie9

Devmode:devmode.js